{
    "ignore": ["**/*.test.ts", "**/*.spec.ts", ".git", "node_modules"],
    "watch": ["src/**/*.ts"],
    "exec": "ts-node -r tsconfig-paths/register",
    "ext": "ts,js,graphql,json",
    "inspect": 5858
}
