{
    "config": {
        "settings": {
            "merge_config_glob_paths": [
                "global/*.json",
                "local/*.json"
            ],
            "merge_config_files": [
                "components.json",
                "settings.json",
                "local.json"
            ]
        }
    }
}